Caderno FIP 606 - Aula 3
…
Os dados são referentes a observação da incidência e severidade da ferrugem do cafeeiro, em direfentes fazendas de duas regiões diferentes da Etiópia, Oramia e SNNPR. O banco de dados é composto por 13 colunas (variáveis dependentes e independentes) e 405 linhas (observações).

O código abaixo, utiliza da função ‘read_csv()’ do pacote readr (carregado automaticamente junto com o pacote tidyverse) para ler os dados em formato .csv, ao passo que os dados são armazenados no objeto nomeado como ‘cr’. A função utiliza como primeiro argumento o local do arquivo de dados. Atenção para inserir o local do arquivo entre aspas simples (’ ’) ou aspas duplas (” “). Outros argumentos da função podem ser acessados pela ajuda.

# Atribuindo banco de dados ao objeto 'cr':
cr <- read_csv('https://raw.githubusercontent.com/emdelponte/paper-coffee-rust-Ethiopia/master/data/survey_clean.csv')

# Buscando ajuda sobre a função:
?read_csv

# Visualizando o banco de dados:
cr

# A tibble: 405 × 13
    farm region zone       district      lon   lat altitude cultivar shade    
   <dbl> <chr>  <chr>      <chr>       <dbl> <dbl>    <dbl> <chr>    <chr>    
 1     1 SNNPR  Bench Maji Debub Bench  35.4  6.90     1100 Local    Sun      
 2     2 SNNPR  Bench Maji Debub Bench  35.4  6.90     1342 Mixture  Mid shade
 3     3 SNNPR  Bench Maji Debub Bench  35.4  6.90     1434 Mixture  Mid shade
 4     4 SNNPR  Bench Maji Debub Bench  35.4  6.90     1100 Local    Sun      
 5     5 SNNPR  Bench Maji Debub Bench  35.4  6.90     1400 Local    Sun      
 6     6 SNNPR  Bench Maji Debub Bench  35.4  6.90     1342 Mixture  Mid shade
 7     7 SNNPR  Bench Maji Debub Bench  35.4  6.90     1432 Mixture  Mid shade
 8     8 SNNPR  Bench Maji Debub Bench  35.4  6.90     1100 Local    Sun      
 9     9 SNNPR  Bench Maji Debub Bench  35.4  6.89     1400 Local    Sun      
10    10 SNNPR  Bench Maji Debub Bench  35.4  6.88     1342 Mixture  Mid shade
# ℹ 395 more rows
# ℹ 4 more variables: cropping_system <chr>, farm_management <chr>, inc <dbl>,
#   sev2 <dbl>
…
As vezes, quando seu banco de dados é muito grande, pode-se seguir com a análise apenas com parte desses dados. Nesse caso, filtrando apenas os dados que serão utilizados nas etapas seguintes da análise. Isso pode ser feito através da criação de subconjuntos. Veja:

Utiliza as funções ‘select( )’ e ‘filter( )’ do pacote dplyr para selecionar colunas e linhas, respectivamente.

cr_oromia <- cr |> 
  select(farm, region, cultivar, sev2) |> 
  filter(region == "Oromia")

cr_pr <- cr |> 
  select(farm, region, cultivar, sev2) |> 
  filter(region == "SNNPR")
cr_oromia

# A tibble: 165 × 4
    farm region cultivar  sev2
   <dbl> <chr>  <chr>    <dbl>
 1   286 Oromia Mixture   7.63
 2   287 Oromia Mixture   9.39
 3   288 Oromia Mixture   1.30
 4   289 Oromia Mixture   9.79
 5   290 Oromia Local    18.5 
 6   291 Oromia Mixture  13.2 
 7   292 Oromia Mixture   5.60
 8   293 Oromia Mixture   1.06
 9   294 Oromia Local    17.6 
10   295 Oromia Mixture  15.4 
# ℹ 155 more rows
…
